[
  {
    "custom": "title",
    "title": "Message(s) pour signaler un UR corrigé"
  },
  {
    "title": "Corrigé !",
    "response": "Hello, \n\nThank you for your report, the problem is now resolved ! \uD83D\uDE42\nIt can be 48h till the map update on your device.\n\nHave a nice day and trips with Waze ! \uD83D\uDE42",
    "status": "Solved"
  },
  {
    "custom": "new-line"
  },
  {
    "custom": "title",
    "title": "Messages pour les nouveaux URs ouverts"
  },
  {
    "title": "Vous avez signalé (...)",
    "response": "Hello, \n\nThank you for your report. \n\nYou've reported a (...), can you tell us more about the problem? Wich road, Is it permanent or temporary, ...? Thank you\n\nHave a nice day and trips with Waze ! \uD83D\uDE42",
    "status": "Open"
  },
  {
    "title": "Adresse incorrecte",
    "response": "Hello, \n\nThank you for your report. \n\nYou've reported a Bad address, can you tell us more about the problem?\nWhat is the adress, is there where you've created the report ?\nThank you.\n\nHave a nice day and trips with Waze ! \uD83D\uDE42",
    "status": "Open",
    "urType": "7"
  },
  {
    "title": "Route manquant",
    "response": "Hello, Bonjour, \n\nThank you for your report.\nYou've reported a missing road, can you tell us more about it?\nWhat is the name, the location, ...?\nThank you.\n\nHave a nice day and trips with Waze ! \uD83D\uDE42",
    "status": "Open",
    "urType": "16"
  },
  {
    "title": "Jonction incorrecte",
    "response": "Hello, Bonjour, \n\nThank you for your report.\nYou've reported a incorrect junction, can you tell us more about that?\nWhich roads are concerned ? Is it temporary or permanent, ...?\nHave a nice day and trips with Waze ! \uD83D\uDE42",
    "status": "Open",
    "urType": "12"
  },
  {
    "title": "Interdiction de tourner",
    "response": "Hello, Bonjour,\n\nThank you for your report.\nYou've reported a Prohibited turn, can you tell us more about the problem ?\nConcerned road, is it for roadwork? Is it permanent or temporary? Does the road directions have changed ?\nThank you.\n\nHave a nice day and trips with Waze ! \uD83D\uDE42",
    "status": "Open",
    "urType": "11"
  },
  {
    "title": "Mauvais sens de circulation",
    "response": "Hello, Bonjour, \n\nThank you for your report.\nYou've reported a wrong driving direction\nCan you tell us more about the problem ? Wich road is concerned ? Is it permanent or temporary ? Is there some roadworks, ...?\nThank you\nHave a nice day and trips with Waze ! \uD83D\uDE42",
    "status": "Open",
    "urType": "14"
  },
  {
    "title": "Protection d'adresse",
    "response": "Bonjour, \nPour des raisons de confidentialité, Waze ne nous communique pas vos points de départ et d'arrivée. Afin de régler votre soucis, pourriez-vous nous communiquer l'adresse de destination? Merci! \n\nBonne route avec Waze ! \uD83D\uDE42",
    "status": "Open"
  },
  {
    "title": "Mauvaise limitation de vitesse",
    "response": "Bonjour, \nMerci pour votre signalement. pourriez-vous préciser dans quel sens est-ce limité?.\nSeules les modifications permanentes peuvent être prise en compte, les modifications liées à des travaux ou évênements ne peuvent être appliqués sur la carte.\n\nBonne route avec Waze ! \uD83D\uDE42",
    "status": "Open"
  },
  {
    "title": "Sortie manquante",
    "response": "Hello, Bonjour,\nThank you for your report.\nYou've reported a missing exit, can you tell us more about it? Is it roadworks in the exit? Is there anything else?Thank you.\n\nHave a nice day and trips with Waze ! \uD83D\uDE42",
    "status": "Open",
    "urType": "15"
  },
  {
    "title": "Fermeture temporaire de la route",
    "response": "Bonjour,\nSavez-vous combien de temps la route va être fermée ? Pour les fermetures qui ne durent que quelques jours, les éditeurs de cartes de bénévoles ne peuvent pas être beaucoup d'aide.Il faut au moins longtemps pour que nos modifications à se rendre à la carte en direct! Si vous rencontrez des fermetures de routes à court terme à l'avenir, veuillez utiliser la fonctionnalité Rapport> Fermeture intégrée à l'application Waze.Si cette fermeture est à long terme, veuillez nous en informer le plus possible. Merci!\n\nBonne route avec Waze ! \uD83D\uDE42",
    "status": "Open"
  },
  {
    "title": "Erreur générale",
    "response": "Hello, Bonjour,\n\nThank you for your report.\nYou've reported a general error, can you tell us more about the problem ?\nHave a nice day and trips with Waze ! \uD83D\uDE42",
    "status": "Open",
    "urType": "10"
  },
  {
    "title": "Le problème semble corrigé !",
    "response": "Bonjour, \n\nLe problème semble à présent être corrigé. Veuillez nous faire savoir si vous continuez à rencontrer le même  problème. Sans nouvelle nouvelles de votre part dans quelques jours, cette demande de mise à jour (UR – Update request) sera fermée. Merci !\n\nBonne route avec Waze ! \uD83D\uDE42",
    "status": "Open"
  },
  {
    "title": "Rappel.",
    "response": "Hello,\nsmall reminder : if we don't receive any answer, we will close this report without actions.\n\nHave a nice day and trips with Waze ! \uD83D\uDE42",
    "status": "Open",
    "urType": "-1"
  },
  {
    "title": "Deuxième rappel",
    "response": "Bonjour, \n\nPour votre information, sachez que le fait de signaler une « Erreur carte » via l’application alerte tous les éditeurs qui travaillent bénévolement pour vous offrir une application la plus performante qui soit.\nSachez qu'en postant un signalement, un avertissement s’affiche sur la Wap Map Editor (WME) avec une faible précision géographique. L’erreur peut parfois être flagrante et corrigée grâce au commentaire laissé par le rapporteur mais la plupart du temps cet « Update Request - (UR) » demande votre collaboration pour apporter davantage de précisions quant au problème rencontré.\nSans commentaire posté ni réponse de votre part aux messages envoyés, il est souvent impossible de corriger la carte afin que les autres utilisateurs puissent ne plus rencontrer le même problème. Par conséquence, votre intervention restera vaine et n’aura eu que comme conséquence de nous avoir fait perdre notre temps.\nCordialement,",
    "status": "Open"
  },
  {
    "custom": "new-line"
  },
  {
    "custom": "title",
    "title": "Messages pour clôturer un UR fermé"
  },
  {
    "title": "Cloture sans réponses.",
    "response": "Bonjour, \n\nN'ayant pas de réponse de votre part, nous allons clôturer cette demande.\n\nA l'avenir, n’hésitez jamais de nous communiquer vos remarques et tous les problèmes que vous pourriez rencontrer sur vos trajets mais rappelez-vous que sans votre participation ni échanges, il est souvent impossible de corriger l'erreur signalée :\n\n    - Route barrée (travaux).\n    - Mauvaise signalisation de limitation de vitesse.\n    - Changement de sens de circulation.\n    - Interdiction de tourner.\n    - Route manquante.\n    - Etc.\n\nEnsemble, tentons continuellement de rentre l’application toujours plus agréable et la plus fonctionnelle possible !\n\nBonne route avec Waze ! \uD83D\uDE42",
    "status": "NotIdentified"
  },
  {
    "title": "Problème de l’application",
    "response": "Bonjour, \n\nMalheureusement, dans cette situation, il n'y a aucune correction de carte que nous pouvons ajuster pour éviter ces problèmes avec l'application. Veuillez le signaler au support : https://support.google.com/waze/answer/6276841 \n\nBonne route avec Waze ! \uD83D\uDE42",
    "status": "NotIdentified"
  },
  {
    "title": "Mauvaise réception GPS",
    "response": "Bonjour, \n\nIl semble que votre GPS rencontre des problèmes de localisation. Les signaux GPS passent parfois difficilement à travers certains véhicules ou au cœur de bâtiments. Assurez-vous que votre appareil se trouve dans un endroit dégagé avec vue sur le ciel. \n\nBonne route avec Waze ! \uD83D\uDE42",
    "status": "NotIdentified"
  },
  {
    "title": "Route correcte",
    "response": "Bonjour, \n\nNous avons examiné votre problème et nous n'avons trouvé aucune erreur de carte. Il semble que Waze vous ait proposé un itinéraire correct. Si vous pensez que le vôtre est meilleur, continuez à l’emprunter. Si c'est en effet plus rapide, Waze apprendra de votre expérience et guidera à l’avenir les autres utilisateurs sur ce chemin plus rapide. Merci ! \n\nBonne route avec Waze ! \uD83D\uDE42",
    "status": "NotIdentified"
  },
  {
    "title": "Virage à gauche autorisé",
    "response": "Bonjour, \n\nSi vous attendez et dessinez le virage à gauche, il se peut que ce soit plus rapide que l'alternative. Si ce n'est pas plus rapide, votre temps d'attente contribuera à la base de données de Waze en décourageant le serveur de routage de suggérer des virages à gauche. Nous suggérons également que si vous ne vous sentez pas à l'aise de faire de tels virages à gauche, vous pouvez toujours emprunter une autre route et laisser Waze recalculer le trajet. \n\nBonne route avec Waze ! \uD83D\uDE42",
    "status": "NotIdentified"
  },
  {
    "title": "Virage à gauche autorisé (2)",
    "response": "Bonjour, \n\nNous ne pouvons pas désactiver les virages officiels uniquement parce qu'ils sont difficiles. Si vous attendez et dessinez le virage à gauche, cela peut être plus rapide que l'alternative. Si ce n'est pas plus rapide, votre temps d'attente contribuera à la base de données de Waze, décourageant ainsi le serveur de routage de suggérer des virages à gauche à cette intersection. Nous suggérons également que si vous ne vous sentez pas à l'aise de faire de tels virages à gauche, vous pouvez toujours emprunter une autre route et laisser Waze recalculer le trajet. \n\nBonne route avec Waze ! \uD83D\uDE42",
    "status": "NotIdentified"
  },
  {
    "title": "Itinéraire correct mais difficile",
    "response": "Bonjour, \n\nNous ne désactivons pas les routes officielles uniquement parce qu'elles sont difficiles. Si vous essayez l'itinéraire, il peut être plus rapide que l'alternatif. Si ce n'est pas plus rapide, le temps d'attente contribuera à la base de données de Waze ; ce qui aidera le serveur de routage à ne plus suggérer cet itinéraire. Nous suggérons également que si vous ne vous sentez pas à l'aise, vous pouvez toujours emprunter une autre route et laisser Waze recalculer. \n\nBonne route avec Waze ! \uD83D\uDE42",
    "status": "NotIdentified"
  },
  {
    "title": "POI manquant.",
    "response": "Bonjour, \n\nMerci de signaler un lieu manquant (POI). A chaque fois que vous trouvez un endroit manquant dans l'application Waze, vous pouvez l'ajouter à partir de l'application en appuyant sur l'icône (lieu). Après avoir pris une photo de l'endroit, veuillez s'il vous plaît ajouter autant détails que vous le pouvez. \n\nBonne route avec Waze ! \uD83D\uDE42",
    "status": "NotIdentified"
  },
  {
    "title": "Détours et mauvais guidage",
    "response": "Bonjour, \n\nNous ne trouvons aucune erreur sur la carte pour expliquer l’itinéraire que Waze vous a proposé.\nCeci étant, il arrive parfois que Waze vous guide vers des déviations complexes uniquement pour vous faire gagner quelques secondes. Nous sommes désolés de vous annoncer que les éditeurs bénévoles de cartes sont impuissants pour corriger cette situation. \n\nBonne route avec Waze ! \uD83D\uDE42",
    "status": "NotIdentified"
  },
  {
    "title": "Plainte globale Waze",
    "response": "Bonjour, \n\nVous pouvez aider à améliorer la carte de Waze en signalant les problèmes que vous rencontrez. Veuillez communiquer le plus de détails possible. \n\nBonne route avec Waze ! \uD83D\uDE42",
    "status": "NotIdentified"
  },
  {
    "title": "Rapport à la communauté locale",
    "response": "Bonjour, \n\nNous ne pouvons vous aider que pour résoudre des problèmes de carte communiqués à la communauté d’éditeurs locaux. N’hésitez jamais de nous signaler tout problème de carte que vous pourriez rencontrer. \n\nBonne route avec Waze ! \uD83D\uDE42",
    "status": "NotIdentified"
  },
  {
    "title": "Eviter les routes à péage",
    "response": "Bonjour, \n\nWaze vous permet toujours de vous rendre à votre destination le plus rapidement possible. Ceci étant, vous souhaitez peut-être ne pas payer pour gagner ce temps ? Si vous préférez ne pas utiliser les tronçons à péage, veuillez paramétrer votre application afin de les éviter.\n(Cliquez sur la loupe en bas à gauche de votre application puis sur le petit engrenage en haut à gauche et ensuite cochez - Eviter les routes à péage – \n\nBonne route avec Waze ! \uD83D\uDE42",
    "status": "NotIdentified"
  },
  {
    "title": "Demi-tours",
    "response": "Bonjour, \n\nActuellement, Waze ne vous dira jamais de faire demi-tour. Il vous guidera afin de faire une boucle afin que vous puissiez revenir sur vos pas. Cette lacune est issue d’un problème de programmation qui ne peut pas être résolu par les éditeurs bénévoles. Waze travaille actuellement pour trouver une solution, merci pour votre compréhension. \n\nBonne route avec Waze ! \uD83D\uDE42",
    "status": "NotIdentified"
  },
  {
    "title": "Trafic - Informations périmées",
    "response": "Bonjour, \n\nWaze s'appuie sur les données (vitesse moyenne sur chaque tronçon de route) des utilisateurs comme vous pour évaluer la fluidité du trafic. Les éditeurs de cartes ne peuvent pas supprimer ce signalement d’embouteillages affiché dans l'application. Dès que Waze détecte un embouteillage, celui-ci reste actif jusqu'à ce que suffisamment d'utilisateurs l'aient exclu de la carte ou que ceux-ci se déplacent sur la voie à une vitesse normale. Vous pouvez participer à la suppression de ces rapports d'embouteillage en appuyant sur \"l'icône de localisation rouge barrée\" dans l'application lorsque l’avertissement apparait. \n\nBonne route avec Waze ! \uD83D\uDE42",
    "status": "NotIdentified"
  },
  {
    "title": "Bouchons",
    "response": "Bonjour, \n\nPour signaler un embouteillage, veuillez utiliser l'application en cliquant sur le bouton orange situé en bas à droite de l’écran puis en cliquant sur (Circulation). Les rapports sur les embouteillages peuvent vous aider à contourner les problèmes de circulation en temps réel. \n\nBonne route avec Waze ! \uD83D\uDE42",
    "status": "NotIdentified"
  },
  {
    "title": "Déviation erronée",
    "response": "Bonjour, \n\nIl n'y a aucun problème avec ces restrictions de virage sur ce tronçon. Les développeurs de Waze travaillent en ce moment pour trouver une solution au problème. Nous n'avons pas encore d’infomation à ce sujet. N'hésitez pas à utiliser cet itinéraire jusqu'à ce que le problème soit résolu. Merci ! \n\nBonne route avec Waze ! \uD83D\uDE42",
    "status": "NotIdentified"
  },
  {
    "title": "Restriction déjà corrigée",
    "response": "Bonjour, \n\nCette restriction est déjà corrigée sur la carte. A l’avenir, waze ne devrait plus vous y faire passer. Si Waze continue à vous proposer cet itinéraire interdit, veuillez nous envoyer un autre rapport. Merci ! \n\nBonne route avec Waze ! \uD83D\uDE42",
    "status": "NotIdentified"
  },
  {
    "title": "Limite de 500 Km",
    "response": "Bonjour, \n\nLes capacités de recherche et de navigation de Waze sont limitées à plus ou moins 500 Km. Pour vous rendre vers une destination plus éloignée, veuillez diviser votre trajet en plusieurs étapes. \n\nBonne route avec Waze ! \uD83D\uDE42",
    "status": "NotIdentified"
  },
  {
    "title": "Blocage temporaire de la route.",
    "response": "Bonjour, \n\nSi une route est complètement bloquée à la circulation (pour cause de travaux ou de festivités par exemple, cliquez sur le bouton orange (en bas à droite) de l’application puis sur (fermeture) pour aider les autres utilisateurs à contourner le problème. Si cette route est seulement rallenti, veuillez cliquer sur le bouton (circulation) afin de communiquer à Waze que cette route est plus lente qu’à l’acoutumé pour qu’un itinéraire plus rapide puisse être proposé. \n\nBonne route avec Waze ! \uD83D\uDE42",
    "status": "NotIdentified"
  },
  {
    "title": "Suppression de fermeture.",
    "response": "Bonjour, \n\nPour les fermetures à long termes, nous pouvons supprimer les anciennes afin de nous concentrer sur les plus récentes. Par contre, pour les fermetures qui ne durent que quelques heures voire quelques jours, les éditeurs bénévoles ne peuvent pas vous aider. Si vous rencontrez des fermetures de routes à court terme dans le futur, merci d'utiliser la fonction de fermeture intégrée à l’application ! \n\nBonne route avec Waze ! \uD83D\uDE42",
    "status": "NotIdentified"
  },
  {
    "title": "Merci pour votre réponse",
    "response": "Bonjour, \n\nMerci pour votre réponse ! La demande de mise à jour (UR – Update Request) va être fermée. Lors de vos trajets, Veuillez ne pas hésitez à signaler tous les problèmes de carte que vous pourriez rencontrer. Merci \n\nBonne route avec Waze ! \uD83D\uDE42",
    "status": "NotIdentified"
  },
  {
    "title": "Zone non modifiable",
    "response": "Bonjour, \n\nCette zone n'est pas modifiable par les éditeurs bénévoles, n'hésitez pas à la signaler à l'adresse https://support.google.com/waze/ \n\nBonne route avec Waze ! \uD83D\uDE42",
    "status": "NotIdentified"
  },
  {
    "title": "Effacer le cache TTS",
    "response": "Bonjour, \n\nVeuillez effacer votre cache Text-to-Speech (TTS). Dans la zone de recherche de navigation de l’application, veuillez tapez (cc@tts) dans le champ de recherche et appuyez ensuite sur (Recherche). Vous recevrez alors un message indiquant que le fichier TTS a été effacé. Merci ! \nBonne route avec Waze ! \uD83D\uDE42",
    "status": "NotIdentified"
  },
  {
    "title": "Signalement de radar",
    "response": "Bonjour, \n\nMerci pour votre signalement. Les radars pédagogiques peuvent être signalés depuis l'application. Veuillez placer votre signalement à l’endroit exact où se trouve le radar. \n\nBonne route avec Waze ! \uD83D\uDE42",
    "status": "NotIdentified"
  }
]