[
  {
    "title": "No further communication",
    "response": "No further information was received and the request is being closed. As you travel, please feel welcome to report any map issues you encounter. Thanks!",
    "status": "Solved"
  },
  {
    "title": "Fixed",
    "response": "Thanks to your report we have found and fixed a problem with the map. The fix should reach mobile devices within a few days. On rare occasions it can take closer to a week.",
    "status": "Solved"
  },
  {
    "title": "Address Adjustments",
    "response": "Thanks! The address has been adjusted. This should reach mobile devices within a few days. On rare occasions it can take closer to a week.",
    "status": "Solved"
  },
  {
    "title": "Address in correct spot",
    "response": "The live map is currently showing your address in the correct spot. Please remove any instance of this address from your history and favorites by tapping the 'i' within the blue circle and then 'remove from history'. Then search for the address. If you don't remove the old results from your navigation or favorites, you will continue to be routed to the old coordinates. Please submit another report if this does not resolve your issue. Thanks!",
    "status": "Solved"
  },
  {
    "title": "The road has been closed",
    "response": "Volunteer responding - Thank you for your report. The road has been closed.",
    "status": "Solved"
  },
  {
    "title": "Fixed Speed Limit",
    "response": "The missing/incorrect speed limit you reported has been updated. Thank you!",
    "status": "Solved"
  },
  {
    "title": "Address fishing",
    "response": "Waze does not tell us your starting or ending destinations. Would you tell us your destination as you entered it into Waze? Thanks!",
    "status": "Open"
  },
  {
    "title": "Errors with no text",
    "response": "Volunteer responding - Waze did not send us enough information to fix your request. Would you please let us know what went wrong with the route Waze gave you? Would you tell us your destination as you entered it into Waze? Thanks!",
    "status": "Open"
  },
  {
    "title": "Reminder message",
    "response": "Just a reminder: We have not received a response on your report. If we don't hear back from you soon, we will infer everything is okay and close the report. Thanks!",
    "status": "Open",
    "urType": "-1"
  },
  {
    "title": "No reply close message",
    "response": "The problem was unclear and volunteers didn't receive a response, so we are closing this report. As you travel, please feel welcome to report any map issues you encounter. Thanks!",
    "status": "NotIdentified",
    "urType": "-2"
  },
  {
    "title": "Speed Limit Already Set",
    "response": "Volunteer responding; The speed limit here is already set correctly. In the future, please submit speed limit requests near the point where the speed limit changes. If the speed limit change is temporary due to construction, please advise and provide additional details. If you would like to see speed limits at all times while using the app, please go to Settings > Speedometer > Show speed limit.  Thank you!",
    "status": "NotIdentified"
  },
  {
    "title": "App Bug",
    "response": "Unfortunately, In this situation, there is nothing wrong with the map that we can adjust to prevent issues with the app. Please report this to https://support.google.com/waze/answer/6276841",
    "status": "NotIdentified"
  },
  {
    "title": "Bad GPS",
    "response": "Volunteer responding - It appears that your device was having GPS trouble. GPS signals do not travel through vehicles or tall buildings. Please make sure your device is somewhere with a clear view of the sky.",
    "status": "NotIdentified"
  },
  {
    "title": "Valid Route",
    "response": "Volunteer responding - We reviewed the issue and did not find any map errors. It looks like Waze provided you with a valid route. Try the Waze suggested route a few times, as it may turn out to actually be faster. If not you'll be teaching Waze that that route is slower, and the faster route will become preferred.",
    "status": "NotIdentified"
  },
  {
    "title": "Valid Left turns",
    "response": "Volunteer responding - If you wait and complete the left turn, it may actually be faster than the alternative. If it’s not faster, your wait time will contribute to Waze’s database, thus helping to discourage the routing server from suggesting left turns at that intersection. We also suggest if you do not feel comfortable making such left turns, you can always go another route and let Waze recalculate.",
    "status": "NotIdentified"
  },
  {
    "title": "Valid Left turns 2",
    "response": "Volunteer responding – We cannot disable legal turns only because they are difficult. If you wait and complete the left turn, it may actually be faster than the alternative. If it’s not faster, your wait time will contribute to Waze’s database, thus helping to discourage the routing server from suggesting left turns at that intersection. We also suggest if you do not feel comfortable making such left turns, you can always go another route and let Waze recalculate.",
    "status": "NotIdentified"
  },
  {
    "title": "Valid but Difficult Route",
    "response": "Volunteer responding – We cannot disable legal routes only because they are difficult. If you wait and complete the route, it may actually be faster than the alternative. If it’s not faster, your wait time will contribute to Waze’s database, thus helping to discourage the routing server from suggesting the route. We also suggest if you do not feel comfortable, you can always go another route and let Waze recalculate.",
    "status": "NotIdentified"
  },
  {
    "title": "Missing place",
    "response": "Volunteer responding - Thank you for reporting a missing place.  Anytime you find a a place that is missing from the waze app you can add it from the app by tapping the Pin icon > Place. After taking a picture of the place please add as many details as you can. Thanks!",
    "status": "NotIdentified"
  },
  {
    "title": "California double yellow",
    "response": "Volunteer responding, In California it is perfectly legal to make a left turn across one double yellow line. Turning across two double yellow lines, spaced apart 2 feet or more, is considered a barrier, and is illegal to cross. Thanks!",
    "status": "NotIdentified"
  },
  {
    "title": "Detours / Odd-Routing",
    "response": "Volunteer responding - We can't find anything on the map to explain the route Waze gave you. Waze will route complex detours to save a few seconds. We are very sorry to say that map editors cannot be helpful in this situation. Thanks!",
    "status": "NotIdentified"
  },
  {
    "title": "Overall Waze complaint",
    "response": "Volunteer responding - You can help make Waze better by reporting problems as you find them. Please include as many details as possible? Thanks!",
    "status": "NotIdentified"
  },
  {
    "title": "Report to local municipality",
    "response": "Volunteer responding - We are only able to help with map issues. This should be reported to the local municipality. Please feel welcome to report any map issues you encounter. Thanks!",
    "status": "NotIdentified"
  },
  {
    "title": "No user transponder (avoid tolls)",
    "response": "Volunteer responding -  While Waze attempts to route you to your destination efficiently, it does not know if you have a toll transponder. To avoid tolls, there is an option under Settings > Navigation or after clicking GO tap Routes and select one without the toll icon. Thanks!",
    "status": "NotIdentified"
  },
  {
    "title": "No user transponder",
    "response": "Volunteer responding - While Waze attempts to route you to your destination efficiently, it does not know if you have a toll transponder.  We are very sorry to say that the volunteer map editors cannot be much help here. As you travel, please feel welcome to report any map issues you encounter. Thanks!",
    "status": "NotIdentified"
  },
  {
    "title": "Not Using HOV",
    "response": "Waze does not have the ability to know you meet the HOV criteria. Driving into the HOV lane should force Waze to recalculate your route. Afterwards you should be allowed to stay in the HOV lane. Thanks!",
    "status": "NotIdentified"
  },
  {
    "title": "U-turns",
    "response": "Volunteer responding - Currently Waze will not tell you to make a \"U-turn\". It will route you in several left/right turns to effectively create a U-turn. This is a programming issue that cannot be changed by the volunteer map editors. We understand that Waze is working on a fix. Thanks!",
    "status": "NotIdentified"
  },
  {
    "title": "Traffic - Stale Information",
    "response": "Map editors are unable to remove traffic jams. You can help clear traffic reports by tapping \"not there\" when prompted or by traveling through the intersection at normal speed.",
    "status": "NotIdentified"
  },
  {
    "title": "Traffic - Jams",
    "response": "To report a traffic jams please use the Waze app by clicking the pin in the lower right and then clicking Traffic Jam. Traffic Jam reports can help route you and other Wazers around traffic problems in real-time. Thanks!",
    "status": "NotIdentified"
  },
  {
    "title": "Signal Avoidance Bug",
    "response": "There are no issues with the intersection’s turn restrictions. Waze's developers are working on a fix for this issue. We do not have an ETA. Please feel free to use the turn until the issue is resolved. Thanks!",
    "status": "NotIdentified"
  },
  {
    "title": "Already included restrictions",
    "response": "This restriction is already included in the map, Waze should not route through this illegal turn. If Waze ever gives you a route through a restricted turn, please send another Map Issue report at that time. Thanks!",
    "status": "NotIdentified"
  },
  {
    "title": "1000 mile limit",
    "response": "The search and navigation capabilities of Waze are limited to 1000 miles. When driving further than that distance you will need to select a destination less than 1000 miles as your temporary destination.",
    "status": "NotIdentified"
  },
  {
    "title": "Temporary road blockage",
    "response": "Volunteer responding - If the road is completely blocked, use the Report > Closure feature for you and others to be rerouted around it. Otherwise please use Report > Traffic. At a minimum Waze is learning that that route is slower, and a faster route will become preferred.",
    "status": "NotIdentified"
  },
  {
    "title": "Temporary Road Closure",
    "response": "Volunteer responding - For closures that last only a few days, the volunteer map editors cannot be much help. It takes at least that long for our edits to make it to the live map! When you encounter road closures in the future, please use the Report > Closure feature built into the Waze app. Thanks!",
    "status": "NotIdentified"
  },
  {
    "title": "Temporary Road Closure",
    "response": "Do you know how long the road is going to be closed? For closures that last only a few days, the volunteer map editors cannot be much help. It takes at least that long for our edits to make it to the live map! When you encounter short-term road closures in the future, please use the Report > Closure feature built into the Waze app. If this is a long-term closure please respond and let us know as much as you can. Thanks!",
    "status": "NotIdentified"
  },
  {
    "title": "Closure clean-up",
    "response": "Due to daily changing closures we are closing out the old requests to concentrate on the newest ones. For closures that last only a few days, the volunteer map editors cannot be much help. It takes at least that long for our edits to make it to the live map! When you encounter short-term road closures in the future, please use the Report > Closure feature built into the Waze app. Thanks!",
    "status": "NotIdentified"
  },
  {
    "title": "Thanks for the reply",
    "response": "Thank you for the reply! This request will be closed. As you travel, please feel welcome to report any map issues you encounter.",
    "status": "NotIdentified"
  },
  {
    "title": "No further communication",
    "response": "No further information was received and the request is being closed. As you travel, please feel welcome to report any map issues you encounter. Thanks!",
    "status": "NotIdentified"
  },
  {
    "title": "water non-editable",
    "response": "This particular water feature is not editable by the volunteer editors, feel free to report this to support at https://support.google.com/waze/",
    "status": "NotIdentified"
  },
  {
    "title": "Clear TTS Cache",
    "response": "Please clear your Text-to-Speech cache. In the navigate search box type cc@tts in the search field and press search. You will get a message that the TTS file has been cleared. Your TTS cache will be re-populated as you use routing.. Thanks!",
    "status": "NotIdentified"
  },
  {
    "custom": "new-line"
  },
  {
    "title": "Problem appears corrected",
    "response": "Just a reminder: The problem appears to be corrected. Please let us know if you are continuing to have the issue. If we do not hear from you in a few days we will close this report. Thanks!",
    "status": "Open"
  },
  {
    "title": "Clears comment & sets UR status to Open",
    "response": "",
    "status": "Open"
  },
  {
    "title": "Include Users Description",
    "response": "Volunteer responding - You reported \"$URD\" and Waze did not send us enough information to fix your request. Would you please let us know what went wrong with the route Waze gave you? Would you tell us your destination as you entered it into Waze? Thanks!",
    "status": "Open"
  },
  {
    "title": "Include selected segments names",
    "response": "Volunteer responding - You reported a problem near $SELSEGS, Waze did not send us enough information to fix your request. Would you please let us know what went wrong with the route Waze gave you? Would you tell us your destination as you entered it into Waze? Thanks!",
    "status": "Open"
  },
  {
    "title": "Wrong Street Name",
    "response": "Volunteer responding - Waze did not send us enough information to fix your request. Would you please let us know which street name you think is wrong and what it should be? Thanks",
    "status": "Open"
  },
  {
    "custom": "new-line"
  },
  {
    "title": "Incorrect turn",
    "response": "Volunteer responding - Would you please let us know what turn you are having a problem with? Would you tell us your destination as you entered it into Waze? Thanks!",
    "status": "Open",
    "urType": "6"
  },
  {
    "title": "Incorrect address",
    "response": "Volunteer responding - Waze did not send us enough information to fix your request. Would you tell us your destination as you entered it into Waze? What is the problem you are having with this address? Thanks!",
    "status": "Open",
    "urType": "7"
  },
  {
    "title": "Incorrect route",
    "response": "Volunteer responding - Waze did not send us enough information to fix your request. Would you please let us know what went wrong with the route Waze gave you? Would you tell us your destination as you entered it into Waze? Thanks!",
    "status": "Open",
    "urType": "8"
  },
  {
    "title": "Missing roundabout",
    "response": "Volunteer responding - Would you tell us as much as possible about the roundabout you believe is missing? Thanks!",
    "status": "Open",
    "urType": "9"
  },
  {
    "title": "General error",
    "response": "Volunteer responding - Waze did not send us enough information to fix your request. Would you please let us know what went wrong? Would you tell us your destination as you entered it into Waze? Thanks!",
    "status": "Open",
    "urType": "10"
  },
  {
    "title": "Turn not allowed",
    "response": "Volunteer responding - Would you please let us know which turn was or should not be allowed and why? Please specify the street names at the intersection. Thanks!",
    "status": "Open",
    "urType": "11"
  },
  {
    "title": "Incorrect junction",
    "response": "Volunteer responding - Waze did not send us enough information to fix your request. Would you please let us know what went wrong with the route Waze gave you? Would you tell us your destination as you entered it into Waze? Thanks!",
    "status": "Open",
    "urType": "12"
  },
  {
    "title": "Missing bridge overpas",
    "response": "Volunteer responding - Would you please let us know what overpass you believe is missing? When moving at highway speeds, Waze deliberately chooses not to display some nearby features to avoid cluttering the screen. Would you tell us as much as possible about the missing overpass. Thanks!",
    "status": "Open",
    "urType": "13"
  },
  {
    "title": "Wrong driving direction",
    "response": "Volunteer responding - Waze did not send us enough information to fix your request. Would you please let us know what went wrong with the route Waze gave you? Would you tell us your destination as you entered it into Waze? Thanks!",
    "status": "Open",
    "urType": "14"
  },
  {
    "title": "Missing Exit",
    "response": "Volunteer responding - Waze did not send us enough information to fix your request. Would you please let us know as much as possible about the missing exit? Thanks!",
    "status": "Open",
    "urType": "15"
  },
  {
    "title": "Missing Road",
    "response": "Volunteer responding - Would you tell us as much as possible about the road you believe is missing? Thanks!",
    "status": "Open",
    "urType": "16"
  },
  {
    "title": "Missing Landmark",
    "response": "Volunteer responding - Would you tell us as much as possible about the landmark you believe is missing? Thanks!",
    "status": "Open",
    "urType": "18"
  },
  {
    "custom": "new-line"
  },
  {
    "title": "User Followed Waze's route",
    "response": "Volunteer responding - It appears that you followed the route Waze suggested. Would you please let us know what went wrong with the route Waze gave you? Would you tell us your destination as you entered it into Waze? Thanks!",
    "status": "Open"
  },
  {
    "title": "Alley Interference",
    "response": "Volunteer responding - Waze does not let the us know where you were going, although it was probably adjacent to the alley. Would you tell us your destination as you entered it into Waze? Thanks!",
    "status": "Open"
  },
  {
    "title": "Road Closed",
    "response": "Volunteer responding - Would you please let us know the following; What road is closed?; between which intersections is this road closed; Do you know how long this road is scheduled to be closed? Thanks!",
    "status": "Open"
  },
  {
    "title": "Area Entrances",
    "response": "We have had problems with Google pins being placed in the center of large landmarks. Delete your previous search and do a new search for the location. Go to the bottom of the auto fill list to see more results and make sure you pick the Waze search engine.",
    "status": "Open"
  },
  {
    "title": "48 Hour Reply",
    "response": "We made some changes to the map, please allow up to 48 hours for the changes to be reflected on the live map.",
    "status": "Open"
  },
  {
    "title": "Clear Saved Locations",
    "response": "To get an updated result, remove the location from your navigation history and then search for the location again.",
    "status": "Open"
  },
  {
    "title": "Address - Incorrect Position",
    "response": "Can you tell us the address or if you can revisit visit the location, please show us the correct position by using the Report > Places feature. Before you save move as close as possible to the entrance. Please do not submit pictures containing faces, license plates, or personal details. Thanks!",
    "status": "Open"
  },
  {
    "title": "Address - Missing from Map",
    "response": "Volunteer responding - Would you let us know the address that is missing? The available resources do not have the address available for your location. You can use the Report > Places feature in Waze to mark the location. Before you save move close as possible to the entrance. Do not submit pictures containing faces, license plates, or personal details. Thanks!",
    "status": "Open"
  },
  {
    "title": "Address - Bad Results",
    "response": "Search results in Waze are retrieved from numerous sources. After tapping search, Scroll to the bottom and you will see options for other search engines. Please try a different option as another search engine might have the address you are looking for",
    "status": "Open"
  },
  {
    "title": "House Number Adjustment",
    "response": "I've forced Waze to re-register the house number for your destination. I believe this should correct your issue. Please allow up to 48 hours for changes to be reflected in the live map. If you have the location in your saved searches or favorites, please remove them and re-add the destination. Please let me know if you continue to experience this problem by submitting another error report. Thanks!",
    "status": "Open"
  },
  {
    "title": "Missing Bridges or Roads",
    "response": "The roads for this area are thoroughly mapped and the volunteer editors cannot find anything missing from the map. When you are moving, Waze deliberately chooses not to display some nearby features to avoid cluttering the screen. If you are certain a feature is missing from the map, please reply and tell us as much as possible about it. Thanks!",
    "status": "Open"
  },
  {
    "title": "Manual Refresh",
    "response": "Please try doing these options. Tap the Search Icon > Settings gear icon > Display & Map > Data Transfer > Refresh map of my area. Secondly, you can try clearing Waze's app cache in your phone’s app manager. The final option is to reset the app by going to the navigation screen and type ##@resetapp in search field and hit search.",
    "status": "Open"
  },
  {
    "title": "Pave Road",
    "response": "Volunteer responding - You can pave the road from the app by tapping the Pin icon > Map Issue > Pave Road tab. After leaving the paved road, tap Start paving. Once done, tap the Steamroller > Stop paving. You can provide information about the new road such as its name by tapping on the Pin icon > Map Issue > Missing Road. Thanks!",
    "status": "Open"
  },
  {
    "title": "Unlock request",
    "response": "I have started the process to get this issue fixed. Thanks for your report!",
    "status": "Open"
  }
]